[
    {
        "isolate_key": "ERR2779018_bin_2",
        "plasmid": "rep2",
        "identity": 100.0,
        "template_length": 1494,
        "coverage": 100.0
    },
    {
        "isolate_key": "ERR2779018_bin_2",
        "plasmid": "repUS43",
        "identity": 100.0,
        "template_length": 1206,
        "coverage": 100.0
    }
]