[
    {
        "isolate_key": "ERR2779377_bin_1",
        "plasmid": "rep2",
        "identity": 100.0,
        "template_length": 1494,
        "coverage": 100.0
    },
    {
        "isolate_key": "ERR2779377_bin_1",
        "plasmid": "repUS1",
        "identity": 98.53,
        "template_length": 1500,
        "coverage": 100.0
    }
]