[
    {
        "isolate_key": "ERR2778478_bin_1",
        "plasmid": "rep2",
        "identity": 100.0,
        "template_length": 1494,
        "coverage": 100.0
    },
    {
        "isolate_key": "ERR2778478_bin_1",
        "plasmid": "rep17",
        "identity": 99.81,
        "template_length": 1041,
        "coverage": 100.0
    }
]