[
    {
        "isolate_key": "ERR2778460_bin_1",
        "plasmid": "rep1",
        "identity": 99.93,
        "template_length": 1491,
        "coverage": 94.7
    },
    {
        "isolate_key": "ERR2778460_bin_1",
        "plasmid": "rep1",
        "identity": 99.93,
        "template_length": 1491,
        "coverage": 94.7
    },
    {
        "isolate_key": "ERR2778460_bin_1",
        "plasmid": "repUS15",
        "identity": 99.81,
        "template_length": 1041,
        "coverage": 100.0
    }
]