[
    {
        "isolate_key": "ERR2778705_bin_1",
        "plasmid": "rep2",
        "identity": 99.93,
        "template_length": 1494,
        "coverage": 100.0
    },
    {
        "isolate_key": "ERR2778705_bin_1",
        "plasmid": "repUS15",
        "identity": 100.0,
        "template_length": 1041,
        "coverage": 100.0
    }
]