[
    {
        "isolate_key": "ERR2779053_bin_1",
        "plasmid": "rep1",
        "identity": 100.0,
        "template_length": 1491,
        "coverage": 63.25
    },
    {
        "isolate_key": "ERR2779053_bin_1",
        "plasmid": "repUS15",
        "identity": 100.0,
        "template_length": 1041,
        "coverage": 100.0
    }
]