[
    {
        "isolate_key": "ERR2779340_bin_1",
        "plasmid": "rep2",
        "identity": 100.0,
        "template_length": 1494,
        "coverage": 100.0
    },
    {
        "isolate_key": "ERR2779340_bin_1",
        "plasmid": "rep1",
        "identity": 96.98,
        "template_length": 1491,
        "coverage": 99.93
    },
    {
        "isolate_key": "ERR2779340_bin_1",
        "plasmid": "rep18b",
        "identity": 94.79,
        "template_length": 969,
        "coverage": 95.98
    },
    {
        "isolate_key": "ERR2779340_bin_1",
        "plasmid": "repUS15",
        "identity": 100.0,
        "template_length": 1041,
        "coverage": 100.0
    }
]