#FILE	NUM_FOUND
output/abricate/ERR2778263_bin_3_vfdb.tab	0
output/abricate/ERR2778309_bin_1_vfdb.tab	0
output/abricate/ERR2778331_bin_1_vfdb.tab	0
output/abricate/ERR2778337_bin_3_vfdb.tab	0
output/abricate/ERR2778346_bin_1_vfdb.tab	0
output/abricate/ERR2778352_bin_1_vfdb.tab	0
output/abricate/ERR2778370_bin_1_vfdb.tab	0
output/abricate/ERR2778372_bin_1_vfdb.tab	0
output/abricate/ERR2778380_bin_2_vfdb.tab	0
output/abricate/ERR2778388_bin_2_vfdb.tab	0
output/abricate/ERR2778389_bin_1_vfdb.tab	0
output/abricate/ERR2778445_bin_2_vfdb.tab	0
output/abricate/ERR2778450_bin_1_vfdb.tab	0
output/abricate/ERR2778458_bin_1_vfdb.tab	0
output/abricate/ERR2778460_bin_1_vfdb.tab	0
output/abricate/ERR2778465_bin_2_vfdb.tab	0
output/abricate/ERR2778472_bin_2_vfdb.tab	0
output/abricate/ERR2778477_bin_4_vfdb.tab	0
output/abricate/ERR2778478_bin_1_vfdb.tab	0
output/abricate/ERR2778480_bin_1_vfdb.tab	0
output/abricate/ERR2778486_bin_2_vfdb.tab	0
output/abricate/ERR2778494_bin_1_vfdb.tab	0
output/abricate/ERR2778502_bin_Isolated_1_vfdb.tab	0
output/abricate/ERR2778521_bin_2_vfdb.tab	0
output/abricate/ERR2778549_bin_1_vfdb.tab	0
output/abricate/ERR2778565_bin_2_vfdb.tab	0
output/abricate/ERR2778574_bin_1_vfdb.tab	0
output/abricate/ERR2778598_bin_1_vfdb.tab	0
output/abricate/ERR2778607_bin_2_vfdb.tab	0
output/abricate/ERR2778610_bin_1_vfdb.tab	0
output/abricate/ERR2778645_bin_1_vfdb.tab	0
output/abricate/ERR2778647_bin_2_vfdb.tab	0
output/abricate/ERR2778651_bin_2_vfdb.tab	0
output/abricate/ERR2778663_bin_1_vfdb.tab	0
output/abricate/ERR2778675_bin_1_vfdb.tab	0
output/abricate/ERR2778676_bin_1_vfdb.tab	0
output/abricate/ERR2778680_bin_3_vfdb.tab	0
output/abricate/ERR2778696_bin_1_vfdb.tab	0
output/abricate/ERR2778705_bin_1_vfdb.tab	0
output/abricate/ERR2778709_bin_1_vfdb.tab	0
output/abricate/ERR2778715_bin_1_vfdb.tab	0
output/abricate/ERR2778719_bin_1_vfdb.tab	0
output/abricate/ERR2778720_bin_1_vfdb.tab	0
output/abricate/ERR2778724_bin_1_vfdb.tab	0
output/abricate/ERR2778760_bin_1_vfdb.tab	0
output/abricate/ERR2778763_bin_1_vfdb.tab	0
output/abricate/ERR2778807_bin_1_vfdb.tab	0
output/abricate/ERR2778846_bin_3_vfdb.tab	0
output/abricate/ERR2778847_bin_1_vfdb.tab	0
output/abricate/ERR2778854_bin_1_vfdb.tab	0
output/abricate/ERR2778871_bin_1_vfdb.tab	0
output/abricate/ERR2778876_bin_1_vfdb.tab	0
output/abricate/ERR2778887_bin_1_vfdb.tab	0
output/abricate/ERR2778895_bin_2_vfdb.tab	0
output/abricate/ERR2778907_bin_1_vfdb.tab	0
output/abricate/ERR2778917_bin_1_vfdb.tab	0
output/abricate/ERR2778931_bin_2_vfdb.tab	0
output/abricate/ERR2778937_bin_1_vfdb.tab	0
output/abricate/ERR2778967_bin_2_vfdb.tab	0
output/abricate/ERR2778996_bin_2_vfdb.tab	0
output/abricate/ERR2779002_bin_1_vfdb.tab	0
output/abricate/ERR2779003_bin_1_vfdb.tab	0
output/abricate/ERR2779018_bin_2_vfdb.tab	0
output/abricate/ERR2779035_bin_3_vfdb.tab	0
output/abricate/ERR2779037_bin_2_vfdb.tab	0
output/abricate/ERR2779051_bin_1_vfdb.tab	0
output/abricate/ERR2779053_bin_1_vfdb.tab	0
output/abricate/ERR2779064_bin_1_vfdb.tab	0
output/abricate/ERR2779072_bin_2_vfdb.tab	0
output/abricate/ERR2779089_bin_1_vfdb.tab	0
output/abricate/ERR2779098_bin_1_vfdb.tab	0
output/abricate/ERR2779101_bin_1_vfdb.tab	0
output/abricate/ERR2779128_bin_1_vfdb.tab	0
output/abricate/ERR2779133_bin_2_vfdb.tab	0
output/abricate/ERR2779154_bin_1_vfdb.tab	0
output/abricate/ERR2779165_bin_1_vfdb.tab	0
output/abricate/ERR2779170_bin_1_vfdb.tab	0
output/abricate/ERR2779178_bin_2_vfdb.tab	0
output/abricate/ERR2779179_bin_1_vfdb.tab	0
output/abricate/ERR2779180_bin_1_vfdb.tab	0
output/abricate/ERR2779213_bin_1_vfdb.tab	0
output/abricate/ERR2779225_bin_2_vfdb.tab	0
output/abricate/ERR2779231_bin_1_vfdb.tab	0
output/abricate/ERR2779240_bin_4_vfdb.tab	0
output/abricate/ERR2779245_bin_1_vfdb.tab	0
output/abricate/ERR2779247_bin_1_vfdb.tab	0
output/abricate/ERR2779263_bin_1_vfdb.tab	0
output/abricate/ERR2779269_bin_1_vfdb.tab	0
output/abricate/ERR2779272_bin_2_vfdb.tab	0
output/abricate/ERR2779273_bin_1_vfdb.tab	0
output/abricate/ERR2779287_bin_3_vfdb.tab	0
output/abricate/ERR2779292_bin_1_vfdb.tab	0
output/abricate/ERR2779293_bin_3_vfdb.tab	0
output/abricate/ERR2779318_bin_1_vfdb.tab	0
output/abricate/ERR2779327_bin_1_vfdb.tab	0
output/abricate/ERR2779340_bin_1_vfdb.tab	0
output/abricate/ERR2779360_bin_1_vfdb.tab	0
output/abricate/ERR2779377_bin_1_vfdb.tab	0
output/abricate/ERR2779388_bin_1_vfdb.tab	0
output/abricate/ERR2779402_bin_3_vfdb.tab	0
output/abricate/ERR2779405_bin_1_vfdb.tab	0
output/abricate/ERR2779413_bin_1_vfdb.tab	0
output/abricate/ERR2779414_bin_2_vfdb.tab	0
output/abricate/ERR2779422_bin_1_vfdb.tab	0
output/abricate/ERR2779426_bin_1_vfdb.tab	0
output/abricate/ERR2779427_bin_2_vfdb.tab	0
output/abricate/ERR2779430_bin_1_vfdb.tab	0
output/abricate/ERR2779444_bin_2_vfdb.tab	0
output/abricate/ERR2779454_bin_1_vfdb.tab	0
output/abricate/ERR2779463_bin_1_vfdb.tab	0
output/abricate/ERR2779472_bin_1_vfdb.tab	0
output/abricate/ERR2779479_bin_2_vfdb.tab	0
output/abricate/ERR2779500_bin_1_vfdb.tab	0
output/abricate/ERR2779516_bin_1_vfdb.tab	0
output/abricate/ERR2779522_bin_1_vfdb.tab	0
output/abricate/ERR2779523_bin_1_vfdb.tab	0
output/abricate/ERR2779553_bin_1_vfdb.tab	0
output/abricate/ERR2779563_bin_1_vfdb.tab	0
output/abricate/ERR2779593_bin_1_vfdb.tab	0
output/abricate/ERR2779600_bin_1_vfdb.tab	0
output/abricate/ERR2779602_bin_2_vfdb.tab	0
output/abricate/ERR2779605_bin_1_vfdb.tab	0
output/abricate/ERR2779622_bin_1_vfdb.tab	0
output/abricate/ERR2779630_bin_1_vfdb.tab	0
output/abricate/ERR2779636_bin_5_vfdb.tab	0
output/abricate/ERR2779638_bin_1_vfdb.tab	0
output/abricate/ERR2779641_bin_1_vfdb.tab	0
output/abricate/ERR2779644_bin_1_vfdb.tab	0
output/abricate/ERR2779656_bin_1_vfdb.tab	0
output/abricate/ERR2779670_bin_2_vfdb.tab	0
output/abricate/ERR2779675_bin_3_vfdb.tab	0
output/abricate/ERR2779676_bin_1_vfdb.tab	0
output/abricate/ERR2779708_bin_1_vfdb.tab	0
output/abricate/ERR2779715_bin_1_vfdb.tab	0
output/abricate/ERR2779732_bin_1_vfdb.tab	0
output/abricate/ERR2779788_bin_2_vfdb.tab	0
output/abricate/ERR2779801_bin_1_vfdb.tab	0
output/abricate/ERR2779813_bin_3_vfdb.tab	0
output/abricate/ERR2779824_bin_1_vfdb.tab	0
output/abricate/ERR2779831_bin_1_vfdb.tab	0
output/abricate/ERR2779903_bin_1_vfdb.tab	0
