[
    {
        "isolate_key": "ERR2779269_bin_1",
        "plasmid": "rep1",
        "identity": 100.0,
        "template_length": 1491,
        "coverage": 71.83
    },
    {
        "isolate_key": "ERR2779269_bin_1",
        "plasmid": "rep22",
        "identity": 100.0,
        "template_length": 708,
        "coverage": 100.0
    },
    {
        "isolate_key": "ERR2779269_bin_1",
        "plasmid": "repUS15",
        "identity": 99.9,
        "template_length": 1041,
        "coverage": 100.0
    },
    {
        "isolate_key": "ERR2779269_bin_1",
        "plasmid": "repUS43",
        "identity": 97.26,
        "template_length": 1206,
        "coverage": 99.92
    }
]