#FILE	SEQUENCE	START	END	STRAND	GENE	COVERAGE	COVERAGE_MAP	GAPS	%COVERAGE	%IDENTITY	DATABASE	ACCESSION	PRODUCT	RESISTANCE
input/ERR2778521_bin_2.fasta	S65_LN:i:9416_dp:f:1.0839487616560515	5242	6618	-	tet(L)	1-1377/1377	===============	0/0	100.00	100.00	ncbi	NG_048206.1	tetracycline efflux MFS transporter Tet(L)	TETRACYCLINE
input/ERR2778521_bin_2.fasta	S65_LN:i:9416_dp:f:1.0839487616560515	8401	9146	+	erm(B)	1-747/747	========/======	1/1	99.87	99.47	ncbi	NG_047801.1	23S rRNA (adenine(2058)-N(6))-methyltransferase Erm(B)	MACROLIDE
input/ERR2778521_bin_2.fasta	S71_LN:i:7196_dp:f:1.241387852095675	62	871	+	spw	1-810/810	===============	0/0	100.00	100.00	ncbi	NG_048075.1	ANT(9) family aminoglycoside nucleotidyltransferase Spw	AMINOGLYCOSIDE
input/ERR2778521_bin_2.fasta	S71_LN:i:7196_dp:f:1.241387852095675	2938	4422	+	lsa(E)	1-1485/1485	===============	0/0	100.00	99.93	ncbi	NG_047935.1	ABC-F type ribosomal protection protein Lsa(E)	LINCOSAMIDE;STREPTOGRAMIN
input/ERR2778521_bin_2.fasta	S71_LN:i:7196_dp:f:1.241387852095675	4476	5279	+	lnu(B)	1-804/804	===============	0/0	100.00	100.00	ncbi	NG_047923.1	lincosamide nucleotidyltransferase Lnu(B)	LINCOSAMIDE
input/ERR2778521_bin_2.fasta	S95_LN:i:2847_dp:f:1.4060693338259558	1022	1816	-	aph(3')-IIIa	1-795/795	===============	0/0	100.00	100.00	ncbi	NG_047418.1	aminoglycoside O-phosphotransferase APH(3')-IIIa	AMIKACIN;KANAMYCIN
input/ERR2778521_bin_2.fasta	S95_LN:i:2847_dp:f:1.4060693338259558	1909	2451	-	sat4	1-543/543	===============	0/0	100.00	100.00	ncbi	NG_048072.1	streptothricin N-acetyltransferase Sat4	STREPTOTHRICIN
