#FILE	SEQUENCE	START	END	STRAND	GENE	COVERAGE	COVERAGE_MAP	GAPS	%COVERAGE	%IDENTITY	DATABASE	ACCESSION	PRODUCT	RESISTANCE
input/ERR2779715_bin_1.fasta	S30_LN:i:20029_dp:f:1.1584394352928136	11317	12079	+	erm(B)_18	1-762/762	========/======	1/1	100.00	99.21	resfinder	X66468	erm(B)	Erythromycin;Lincomycin;Clindamycin;Quinupristin;Pristinamycin_IA;Virginiamycin_S
input/ERR2779715_bin_1.fasta	S32_LN:i:18200_dp:f:1.2355024776366164	7368	9974	+	VanHAX_2	1-2607/2607	===============	0/0	100.00	99.96	resfinder	M97297	VanHAX	Vancomycin;Teicoplanin
input/ERR2779715_bin_1.fasta	S33_LN:i:17881_dp:f:1.4859077201586797	11773	12636	-	ant(6)-Ia_2	1-864/864	===============	0/0	100.00	100.00	resfinder	KF421157	ant(6)-Ia	Streptomycin
input/ERR2779715_bin_1.fasta	S45_LN:i:7477_dp:f:1.4181225379496345	104	1480	+	tet(L)_2	1-1377/1377	===============	0/0	100.00	100.00	resfinder	M29725	tet(L)	Doxycycline;Tetracycline
