#FILE	SEQUENCE	START	END	STRAND	GENE	COVERAGE	COVERAGE_MAP	GAPS	%COVERAGE	%IDENTITY	DATABASE	ACCESSION	PRODUCT	RESISTANCE
input/ERR2779463_bin_1.fasta	S10_LN:i:74981_dp:f:0.9933709775792903	10199	10961	-	erm(B)_18	1-762/762	========/======	1/1	100.00	98.95	resfinder	X66468	erm(B)	Erythromycin;Lincomycin;Clindamycin;Quinupristin;Pristinamycin_IA;Virginiamycin_S
input/ERR2779463_bin_1.fasta	S10_LN:i:74981_dp:f:0.9933709775792903	15362	16225	-	ant(6)-Ia_2	1-864/864	===============	0/0	100.00	100.00	resfinder	KF421157	ant(6)-Ia	Streptomycin
input/ERR2779463_bin_1.fasta	S31_LN:i:18200_dp:f:1.1151907984925271	7368	9974	+	VanHAX_2	1-2607/2607	===============	0/0	100.00	99.96	resfinder	M97297	VanHAX	Vancomycin;Teicoplanin
