#FILE	SEQUENCE	START	END	STRAND	GENE	COVERAGE	COVERAGE_MAP	GAPS	%COVERAGE	%IDENTITY	DATABASE	ACCESSION	PRODUCT	RESISTANCE
input/ERR2779824_bin_1.fasta	S48_LN:i:6934_dp:f:1.235738922240143	4067	4829	+	erm(B)_18	1-762/762	========/======	1/1	100.00	98.95	resfinder	X66468	erm(B)	Erythromycin;Lincomycin;Clindamycin;Quinupristin;Pristinamycin_IA;Virginiamycin_S
input/ERR2779824_bin_1.fasta	S49_LN:i:6645_dp:f:1.4951975229482364	487	1829	+	tet(L)_8	35-1377/1377	===============	0/0	97.53	100.00	resfinder	AY081910	tet(L)	Doxycycline;Tetracycline
