#FILE	SEQUENCE	START	END	STRAND	GENE	COVERAGE	COVERAGE_MAP	GAPS	%COVERAGE	%IDENTITY	DATABASE	ACCESSION	PRODUCT	RESISTANCE
input/ERR2778370_bin_1.fasta	S46_LN:i:18155_dp:f:1.691638490582471	12094	14013	+	tet(M)_10	1-1920/1920	===============	0/0	100.00	98.65	resfinder	EU182585	tet(M)	Doxycycline;Tetracycline;Minocycline
input/ERR2778370_bin_1.fasta	S61_LN:i:11267_dp:f:1.6576397357153538	1221	1983	+	erm(B)_18	1-762/762	========/======	1/1	100.00	99.21	resfinder	X66468	erm(B)	Erythromycin;Lincomycin;Clindamycin;Quinupristin;Pristinamycin_IA;Virginiamycin_S
input/ERR2778370_bin_1.fasta	S69_LN:i:8658_dp:f:2.0022559983739354	1	754	+	ant(6)-Ia_2	111-864/864	.==============	0/0	87.27	100.00	resfinder	KF421157	ant(6)-Ia	Streptomycin
input/ERR2778370_bin_1.fasta	S69_LN:i:8658_dp:f:2.0022559983739354	4333	5817	+	lsa(E)_1	1-1485/1485	===============	0/0	100.00	100.00	resfinder	JX560992	lsa(E)	Lincomycin;Clindamycin;Dalfopristin;Pristinamycin_IIA;Virginiamycin_M;Tiamulin
input/ERR2778370_bin_1.fasta	S69_LN:i:8658_dp:f:2.0022559983739354	5871	6674	+	lnu(B)_2	1-804/804	===============	0/0	100.00	99.88	resfinder	JQ861959	lnu(B)	Lincomycin;Clindamycin
input/ERR2778370_bin_1.fasta	S81_LN:i:6428_dp:f:1.8604293333498805	3083	3733	+	cat(pC194)_1	1-651/651	===============	0/0	100.00	99.69	resfinder	NC_002013	cat(pC194)	Chloramphenicol
