#FILE	SEQUENCE	START	END	STRAND	GENE	COVERAGE	COVERAGE_MAP	GAPS	%COVERAGE	%IDENTITY	DATABASE	ACCESSION	PRODUCT	RESISTANCE
input/ERR2779622_bin_1.fasta	S13_LN:i:63084_dp:f:1.0179685842589457	6933	7695	+	erm(B)_18	1-762/762	========/======	1/1	100.00	99.21	resfinder	X66468	erm(B)	Erythromycin;Lincomycin;Clindamycin;Quinupristin;Pristinamycin_IA;Virginiamycin_S
input/ERR2779622_bin_1.fasta	S31_LN:i:13696_dp:f:1.2011776331370612	7368	9974	+	VanHAX_2	1-2607/2607	===============	0/0	100.00	99.96	resfinder	M97297	VanHAX	Vancomycin;Teicoplanin
