#FILE	SEQUENCE	START	END	STRAND	GENE	COVERAGE	COVERAGE_MAP	GAPS	%COVERAGE	%IDENTITY	DATABASE	ACCESSION	PRODUCT	RESISTANCE
input/ERR2778709_bin_1.fasta	S44_LN:i:17106_dp:f:1.6176434373087971	8282	8767	-	vanZ-A	1-486/486	===============	0/0	100.00	100.00	ncbi	NG_048534.1	glycopeptide resistance protein VanZ-A	VANCOMYCIN
input/ERR2778709_bin_1.fasta	S44_LN:i:17106_dp:f:1.6176434373087971	8920	9831	-	vanY-A	1-912/912	===============	0/0	100.00	100.00	ncbi	NG_048516.1	D-Ala-D-Ala carboxypeptidase VanY-A	VANCOMYCIN
input/ERR2778709_bin_1.fasta	S44_LN:i:17106_dp:f:1.6176434373087971	10259	10867	-	vanX-A	1-609/609	===============	0/0	100.00	100.00	ncbi	NG_048477.1	D-Ala-D-Ala dipeptidase VanX-A	VANCOMYCIN
input/ERR2778709_bin_1.fasta	S44_LN:i:17106_dp:f:1.6176434373087971	10873	11904	-	vanA	1-1032/1032	===============	0/0	100.00	100.00	ncbi	NG_048323.1	D-alanine--(R)-lactate ligase VanA	VANCOMYCIN
input/ERR2778709_bin_1.fasta	S44_LN:i:17106_dp:f:1.6176434373087971	11897	12865	-	vanH-A	1-969/969	===============	0/0	100.00	100.00	ncbi	NG_048372.1	D-lactate dehydrogenase VanH-A	VANCOMYCIN
input/ERR2778709_bin_1.fasta	S44_LN:i:17106_dp:f:1.6176434373087971	13080	14234	-	vanS-A	1-1155/1155	===============	0/0	100.00	100.00	ncbi	NG_048425.1	VanA-type vancomycin resistance histidine kinase VanS	VANCOMYCIN
input/ERR2778709_bin_1.fasta	S44_LN:i:17106_dp:f:1.6176434373087971	14212	14907	-	vanR-A	1-696/696	===============	0/0	100.00	100.00	ncbi	NG_048399.1	VanA-type vancomycin resistance DNA-binding response regulator VanR	VANCOMYCIN
