#FILE	SEQUENCE	START	END	STRAND	GENE	COVERAGE	COVERAGE_MAP	GAPS	%COVERAGE	%IDENTITY	DATABASE	ACCESSION	PRODUCT	RESISTANCE
input/ERR2779213_bin_1.fasta	S40_LN:i:22488_dp:f:1.4240083302452913	9624	12230	+	VanHAX_2	1-2607/2607	===============	0/0	100.00	100.00	resfinder	M97297	VanHAX	Vancomycin;Teicoplanin
input/ERR2779213_bin_1.fasta	S40_LN:i:22488_dp:f:1.4240083302452913	14458	15021	-	str_3	1-564/564	===============	0/0	100.00	100.00	resfinder	AM932524	str	Streptomycin
