#FILE	SEQUENCE	START	END	STRAND	GENE	COVERAGE	COVERAGE_MAP	GAPS	%COVERAGE	%IDENTITY	DATABASE	ACCESSION	PRODUCT	RESISTANCE
input/ERR2778967_bin_2.fasta	S63_LN:i:10715_dp:f:3.1143608052118643	3815	4678	-	ant(6)-Ia_2	1-864/864	===============	0/0	100.00	100.00	resfinder	KF421157	ant(6)-Ia	Streptomycin
input/ERR2778967_bin_2.fasta	S63_LN:i:10715_dp:f:3.1143608052118643	8186	8989	-	lnu(B)_2	1-804/804	===============	0/0	100.00	100.00	resfinder	JQ861959	lnu(B)	Lincomycin;Clindamycin
input/ERR2778967_bin_2.fasta	S63_LN:i:10715_dp:f:3.1143608052118643	9043	10527	-	lsa(E)_1	1-1485/1485	===============	0/0	100.00	100.00	resfinder	JX560992	lsa(E)	Lincomycin;Clindamycin;Dalfopristin;Pristinamycin_IIA;Virginiamycin_M;Tiamulin
input/ERR2778967_bin_2.fasta	S67_LN:i:9067_dp:f:2.472298814867692	7773	8535	-	erm(B)_18	1-762/762	========/======	1/1	100.00	99.21	resfinder	X66468	erm(B)	Erythromycin;Lincomycin;Clindamycin;Quinupristin;Pristinamycin_IA;Virginiamycin_S
input/ERR2778967_bin_2.fasta	S79_LN:i:6481_dp:f:2.643816094507831	2812	3459	-	cat_5	1-648/648	===============	0/0	100.00	99.85	resfinder	U35036	cat	Chloramphenicol
input/ERR2778967_bin_2.fasta	S79_LN:i:6481_dp:f:2.643816094507831	4500	5876	-	tet(L)_2	1-1377/1377	===============	0/0	100.00	100.00	resfinder	M29725	tet(L)	Doxycycline;Tetracycline
