#FILE	SEQUENCE	START	END	STRAND	GENE	COVERAGE	COVERAGE_MAP	GAPS	%COVERAGE	%IDENTITY	DATABASE	ACCESSION	PRODUCT	RESISTANCE
input/ERR2779170_bin_1.fasta	S100_LN:i:1827_dp:f:1.6076458651702281	120	767	+	catA8	1-648/648	===============	0/0	100.00	100.00	ncbi	NG_047578.1	type A-8 chloramphenicol O-acetyltransferase	CHLORAMPHENICOL
input/ERR2779170_bin_1.fasta	S35_LN:i:31064_dp:f:2.059799083097427	2155	2652	+	dfrG	1-498/498	===============	0/0	100.00	100.00	ncbi	NG_047756.1	trimethoprim-resistant dihydrofolate reductase DfrG	TRIMETHOPRIM
input/ERR2779170_bin_1.fasta	S61_LN:i:12519_dp:f:2.8284490317408624	6035	6520	-	vanZ-A	1-486/486	===============	0/0	100.00	100.00	ncbi	NG_048534.1	glycopeptide resistance protein VanZ-A	VANCOMYCIN
input/ERR2779170_bin_1.fasta	S61_LN:i:12519_dp:f:2.8284490317408624	6673	7583	-	vanY-A	1-912/912	========/======	1/1	99.89	99.89	ncbi	NG_048516.1	D-Ala-D-Ala carboxypeptidase VanY-A	VANCOMYCIN
input/ERR2779170_bin_1.fasta	S61_LN:i:12519_dp:f:2.8284490317408624	7820	8428	-	vanX-A	1-609/609	===============	0/0	100.00	100.00	ncbi	NG_048477.1	D-Ala-D-Ala dipeptidase VanX-A	VANCOMYCIN
input/ERR2779170_bin_1.fasta	S61_LN:i:12519_dp:f:2.8284490317408624	8434	9465	-	vanA	1-1032/1032	===============	0/0	100.00	100.00	ncbi	NG_048323.1	D-alanine--(R)-lactate ligase VanA	VANCOMYCIN
input/ERR2779170_bin_1.fasta	S61_LN:i:12519_dp:f:2.8284490317408624	9458	10426	-	vanH-A	1-969/969	===============	0/0	100.00	100.00	ncbi	NG_048372.1	D-lactate dehydrogenase VanH-A	VANCOMYCIN
input/ERR2779170_bin_1.fasta	S61_LN:i:12519_dp:f:2.8284490317408624	10641	11795	-	vanS-A	1-1155/1155	===============	0/0	100.00	100.00	ncbi	NG_048425.1	VanA-type vancomycin resistance histidine kinase VanS	VANCOMYCIN
input/ERR2779170_bin_1.fasta	S61_LN:i:12519_dp:f:2.8284490317408624	11773	12468	-	vanR-A	1-696/696	===============	0/0	100.00	100.00	ncbi	NG_048399.1	VanA-type vancomycin resistance DNA-binding response regulator VanR	VANCOMYCIN
input/ERR2779170_bin_1.fasta	S79_LN:i:5953_dp:f:2.3419295037202192	2825	3733	+	ant(6)-Ia	1-909/909	===============	0/0	100.00	100.00	ncbi	NG_047393.1	aminoglycoside nucleotidyltransferase ANT(6)-Ia	STREPTOMYCIN
input/ERR2779170_bin_1.fasta	S79_LN:i:5953_dp:f:2.3419295037202192	3730	4272	+	sat4	1-543/543	===============	0/0	100.00	100.00	ncbi	NG_048072.1	streptothricin N-acetyltransferase Sat4	STREPTOTHRICIN
input/ERR2779170_bin_1.fasta	S79_LN:i:5953_dp:f:2.3419295037202192	4365	5159	+	aph(3')-IIIa	1-795/795	===============	0/0	100.00	100.00	ncbi	NG_047418.1	aminoglycoside O-phosphotransferase APH(3')-IIIa	AMIKACIN;KANAMYCIN
