#FILE	SEQUENCE	START	END	STRAND	GENE	COVERAGE	COVERAGE_MAP	GAPS	%COVERAGE	%IDENTITY	DATABASE	ACCESSION	PRODUCT	RESISTANCE
input/ERR2778846_bin_3.fasta	S41_LN:i:21705_dp:f:1.5143777883075717	7468	8031	+	str_3	1-564/564	===============	0/0	100.00	100.00	resfinder	AM932524	str	Streptomycin
input/ERR2778846_bin_3.fasta	S41_LN:i:21705_dp:f:1.5143777883075717	10259	12865	-	VanHAX_2	1-2607/2607	===============	0/0	100.00	100.00	resfinder	M97297	VanHAX	Vancomycin;Teicoplanin
