#FILE	SEQUENCE	START	END	STRAND	GENE	COVERAGE	COVERAGE_MAP	GAPS	%COVERAGE	%IDENTITY	DATABASE	ACCESSION	PRODUCT	RESISTANCE
input/ERR2779831_bin_1.fasta	S32_LN:i:18200_dp:f:1.332525450535742	5326	6021	+	vanR-A	1-696/696	===============	0/0	100.00	100.00	ncbi	NG_048399.1	VanA-type vancomycin resistance DNA-binding response regulator VanR	VANCOMYCIN
input/ERR2779831_bin_1.fasta	S32_LN:i:18200_dp:f:1.332525450535742	5999	7153	+	vanS-A	1-1155/1155	===============	0/0	100.00	100.00	ncbi	NG_048425.1	VanA-type vancomycin resistance histidine kinase VanS	VANCOMYCIN
input/ERR2779831_bin_1.fasta	S32_LN:i:18200_dp:f:1.332525450535742	7368	8336	+	vanH-A	1-969/969	===============	0/0	100.00	100.00	ncbi	NG_048372.1	D-lactate dehydrogenase VanH-A	VANCOMYCIN
input/ERR2779831_bin_1.fasta	S32_LN:i:18200_dp:f:1.332525450535742	8329	9360	+	vanA	1-1032/1032	===============	0/0	100.00	100.00	ncbi	NG_048323.1	D-alanine--(R)-lactate ligase VanA	VANCOMYCIN
input/ERR2779831_bin_1.fasta	S32_LN:i:18200_dp:f:1.332525450535742	9366	9974	+	vanX-A	1-609/609	===============	0/0	100.00	100.00	ncbi	NG_048476.1	D-Ala-D-Ala dipeptidase VanX-A	VANCOMYCIN
input/ERR2779831_bin_1.fasta	S32_LN:i:18200_dp:f:1.332525450535742	10402	11313	+	vanY-A	1-912/912	===============	0/0	100.00	100.00	ncbi	NG_048516.1	D-Ala-D-Ala carboxypeptidase VanY-A	VANCOMYCIN
input/ERR2779831_bin_1.fasta	S32_LN:i:18200_dp:f:1.332525450535742	11466	11951	+	vanZ-A	1-486/486	===============	0/0	100.00	100.00	ncbi	NG_048534.1	glycopeptide resistance protein VanZ-A	VANCOMYCIN
input/ERR2779831_bin_1.fasta	S43_LN:i:5269_dp:f:2.505183667104765	3907	4644	-	erm(B)	1-738/738	===============	0/0	100.00	100.00	ncbi	NG_047804.1	23S rRNA (adenine(2058)-N(6))-methyltransferase Erm(B)	MACROLIDE
