#FILE	SEQUENCE	START	END	STRAND	GENE	COVERAGE	COVERAGE_MAP	GAPS	%COVERAGE	%IDENTITY	DATABASE	ACCESSION	PRODUCT	RESISTANCE
input/ERR2779605_bin_1.fasta	S44_LN:i:19020_dp:f:1.5288355612138218	6156	8762	+	VanHAX_2	1-2607/2607	===============	0/0	100.00	100.00	resfinder	M97297	VanHAX	Vancomycin;Teicoplanin
input/ERR2779605_bin_1.fasta	S44_LN:i:19020_dp:f:1.5288355612138218	10990	11553	-	str_3	1-564/564	===============	0/0	100.00	100.00	resfinder	AM932524	str	Streptomycin
