#FILE	SEQUENCE	START	END	STRAND	GENE	COVERAGE	COVERAGE_MAP	GAPS	%COVERAGE	%IDENTITY	DATABASE	ACCESSION	PRODUCT	RESISTANCE
input/ERR2779708_bin_1.fasta	S46_LN:i:18063_dp:f:1.2921969865287042	12002	13921	+	tet(M)_10	1-1920/1920	===============	0/0	100.00	98.65	resfinder	EU182585	tet(M)	Doxycycline;Tetracycline;Minocycline
input/ERR2779708_bin_1.fasta	S70_LN:i:8801_dp:f:0.8895090753277138	651	1413	+	erm(B)_18	1-762/762	========/======	1/1	100.00	99.21	resfinder	X66468	erm(B)	Erythromycin;Lincomycin;Clindamycin;Quinupristin;Pristinamycin_IA;Virginiamycin_S
input/ERR2779708_bin_1.fasta	S88_LN:i:4079_dp:f:0.9455321637957222	132	1508	+	tet(L)_2	1-1377/1377	===============	0/0	100.00	100.00	resfinder	M29725	tet(L)	Doxycycline;Tetracycline
