#FILE	SEQUENCE	START	END	STRAND	GENE	COVERAGE	COVERAGE_MAP	GAPS	%COVERAGE	%IDENTITY	DATABASE	ACCESSION	PRODUCT	RESISTANCE
input/ERR2778675_bin_1.fasta	S128_LN:i:1155_dp:f:2.5918326336199176	346	1140	+	aph(3')-III_1	1-795/795	===============	0/0	100.00	100.00	resfinder	M26832	aph(3')-III	Amikacin
input/ERR2778675_bin_1.fasta	S66_LN:i:11336_dp:f:1.1999304277820237	7320	7817	-	dfrG_1	1-498/498	===============	0/0	100.00	100.00	resfinder	AB205645	dfrG	Trimethoprim
input/ERR2778675_bin_1.fasta	S74_LN:i:8095_dp:f:1.2388865052166216	2895	3698	-	lnu(B)_2	1-804/804	===============	0/0	100.00	99.88	resfinder	JQ861959	lnu(B)	Lincomycin;Clindamycin
input/ERR2778675_bin_1.fasta	S74_LN:i:8095_dp:f:1.2388865052166216	3752	5236	-	lsa(E)_1	1-1485/1485	===============	0/0	100.00	100.00	resfinder	JX560992	lsa(E)	Lincomycin;Clindamycin;Dalfopristin;Pristinamycin_IIA;Virginiamycin_M;Tiamulin
input/ERR2778675_bin_1.fasta	S79_LN:i:7147_dp:f:1.392023267055175	539	1915	+	tet(L)_2	1-1377/1377	===============	0/0	100.00	100.00	resfinder	M29725	tet(L)	Doxycycline;Tetracycline
