#FILE	SEQUENCE	START	END	STRAND	GENE	COVERAGE	COVERAGE_MAP	GAPS	%COVERAGE	%IDENTITY	DATABASE	ACCESSION	PRODUCT	RESISTANCE
input/ERR2779903_bin_1.fasta	S25_LN:i:3622_dp:f:1.2258623186574982	1636	3012	-	tet(L)	1-1377/1377	===============	0/0	100.00	100.00	ncbi	NG_048203.1	tetracycline efflux MFS transporter Tet(L)	TETRACYCLINE
input/ERR2779903_bin_1.fasta	S26_LN:i:3337_dp:f:1.3925589640273124	230	874	-	vat(E)	1-645/645	===============	0/0	100.00	100.00	ncbi	NG_048542.2	streptogramin A O-acetyltransferase Vat(E)	STREPTOGRAMIN
input/ERR2779903_bin_1.fasta	S33_LN:i:1475_dp:f:1.0725353865227882	679	1416	+	erm(B)	1-738/738	===============	0/0	100.00	100.00	ncbi	NG_047794.1	23S rRNA (adenine(2058)-N(6))-methyltransferase Erm(B)	MACROLIDE
