#FILE	SEQUENCE	START	END	STRAND	GENE	COVERAGE	COVERAGE_MAP	GAPS	%COVERAGE	%IDENTITY	DATABASE	ACCESSION	PRODUCT	RESISTANCE
input/ERR2779813_bin_3.fasta	S26_LN:i:13000_dp:f:2.99867707072066	8898	9395	+	dfrG_1	1-498/498	===============	0/0	100.00	100.00	resfinder	AB205645	dfrG	Trimethoprim
input/ERR2779813_bin_3.fasta	S37_LN:i:4768_dp:f:2.675194702303541	1043	1690	-	cat(pC221)_1	1-648/648	===============	0/0	100.00	97.69	resfinder	X02529	cat(pC221)	Chloramphenicol
input/ERR2779813_bin_3.fasta	S50_LN:i:1215_dp:f:4.396258427134251	315	1077	+	erm(B)_18	1-762/762	========/======	1/1	100.00	99.08	resfinder	X66468	erm(B)	Erythromycin;Lincomycin;Clindamycin;Quinupristin;Pristinamycin_IA;Virginiamycin_S
