#FILE	SEQUENCE	START	END	STRAND	GENE	COVERAGE	COVERAGE_MAP	GAPS	%COVERAGE	%IDENTITY	DATABASE	ACCESSION	PRODUCT	RESISTANCE
input/ERR2778895_bin_2.fasta	S43_LN:i:24948_dp:f:1.1894002208133647	12875	13438	+	str_3	1-564/564	===============	0/0	100.00	100.00	resfinder	AM932524	str	Streptomycin
input/ERR2778895_bin_2.fasta	S43_LN:i:24948_dp:f:1.1894002208133647	15666	18272	-	VanHAX_2	1-2607/2607	===============	0/0	100.00	100.00	resfinder	M97297	VanHAX	Vancomycin;Teicoplanin
