#FILE	SEQUENCE	START	END	STRAND	GENE	COVERAGE	COVERAGE_MAP	GAPS	%COVERAGE	%IDENTITY	DATABASE	ACCESSION	PRODUCT	RESISTANCE
input/ERR2778389_bin_1.fasta	S42_LN:i:19056_dp:f:1.5501765644424663	4150	4845	+	vanR-A	1-696/696	===============	0/0	100.00	100.00	ncbi	NG_048399.1	VanA-type vancomycin resistance DNA-binding response regulator VanR	VANCOMYCIN
input/ERR2778389_bin_1.fasta	S42_LN:i:19056_dp:f:1.5501765644424663	4823	5977	+	vanS-A	1-1155/1155	===============	0/0	100.00	100.00	ncbi	NG_048425.1	VanA-type vancomycin resistance histidine kinase VanS	VANCOMYCIN
input/ERR2778389_bin_1.fasta	S42_LN:i:19056_dp:f:1.5501765644424663	6192	7160	+	vanH-A	1-969/969	===============	0/0	100.00	100.00	ncbi	NG_048372.1	D-lactate dehydrogenase VanH-A	VANCOMYCIN
input/ERR2778389_bin_1.fasta	S42_LN:i:19056_dp:f:1.5501765644424663	7153	8184	+	vanA	1-1032/1032	===============	0/0	100.00	100.00	ncbi	NG_048323.1	D-alanine--(R)-lactate ligase VanA	VANCOMYCIN
input/ERR2778389_bin_1.fasta	S42_LN:i:19056_dp:f:1.5501765644424663	8190	8798	+	vanX-A	1-609/609	===============	0/0	100.00	100.00	ncbi	NG_048477.1	D-Ala-D-Ala dipeptidase VanX-A	VANCOMYCIN
input/ERR2778389_bin_1.fasta	S42_LN:i:19056_dp:f:1.5501765644424663	9226	10137	+	vanY-A	1-912/912	===============	0/0	100.00	100.00	ncbi	NG_048516.1	D-Ala-D-Ala carboxypeptidase VanY-A	VANCOMYCIN
input/ERR2778389_bin_1.fasta	S42_LN:i:19056_dp:f:1.5501765644424663	10290	10775	+	vanZ-A	1-486/486	===============	0/0	100.00	100.00	ncbi	NG_048534.1	glycopeptide resistance protein VanZ-A	VANCOMYCIN
