#FILE	SEQUENCE	START	END	STRAND	GENE	COVERAGE	COVERAGE_MAP	GAPS	%COVERAGE	%IDENTITY	DATABASE	ACCESSION	PRODUCT	RESISTANCE
input/ERR2778372_bin_1.fasta	S108_LN:i:2201_dp:f:1.6064811031741768	376	1170	-	aph(3')-III_1	1-795/795	===============	0/0	100.00	99.87	resfinder	M26832	aph(3')-III	Amikacin
input/ERR2778372_bin_1.fasta	S49_LN:i:15213_dp:f:1.4799369571096592	12002	13921	+	tet(M)_10	1-1920/1920	===============	0/0	100.00	98.65	resfinder	EU182585	tet(M)	Doxycycline;Tetracycline;Minocycline
input/ERR2778372_bin_1.fasta	S67_LN:i:8264_dp:f:1.3115888784520753	1990	2793	-	lnu(B)_2	1-804/804	===============	0/0	100.00	100.00	resfinder	JQ861959	lnu(B)	Lincomycin;Clindamycin
input/ERR2778372_bin_1.fasta	S67_LN:i:8264_dp:f:1.3115888784520753	2847	4331	-	lsa(E)_1	1-1485/1485	===============	0/0	100.00	100.00	resfinder	JX560992	lsa(E)	Lincomycin;Clindamycin;Dalfopristin;Pristinamycin_IIA;Virginiamycin_M;Tiamulin
