#FILE	SEQUENCE	START	END	STRAND	GENE	COVERAGE	COVERAGE_MAP	GAPS	%COVERAGE	%IDENTITY	DATABASE	ACCESSION	PRODUCT	RESISTANCE
input/ERR2778876_bin_1.fasta	S43_LN:i:18046_dp:f:1.3667795450042328	4126	6045	-	tet(M)_10	1-1920/1920	===============	0/0	100.00	98.65	resfinder	EU182585	tet(M)	Doxycycline;Tetracycline;Minocycline
input/ERR2778876_bin_1.fasta	S54_LN:i:12488_dp:f:0.9595339790814825	7935	8697	-	erm(B)_18	1-762/762	========/======	1/1	100.00	99.21	resfinder	X66468	erm(B)	Erythromycin;Lincomycin;Clindamycin;Quinupristin;Pristinamycin_IA;Virginiamycin_S
input/ERR2778876_bin_1.fasta	S72_LN:i:4471_dp:f:1.0867482032530575	2572	3948	-	tet(L)_2	1-1377/1377	===============	0/0	100.00	100.00	resfinder	M29725	tet(L)	Doxycycline;Tetracycline
