#FILE	SEQUENCE	START	END	STRAND	GENE	COVERAGE	COVERAGE_MAP	GAPS	%COVERAGE	%IDENTITY	DATABASE	ACCESSION	PRODUCT	RESISTANCE
input/ERR2779245_bin_1.fasta	S40_LN:i:22488_dp:f:1.256838668759569	7582	8277	+	vanR-A	1-696/696	===============	0/0	100.00	100.00	ncbi	NG_048399.1	VanA-type vancomycin resistance DNA-binding response regulator VanR	VANCOMYCIN
input/ERR2779245_bin_1.fasta	S40_LN:i:22488_dp:f:1.256838668759569	8255	9409	+	vanS-A	1-1155/1155	===============	0/0	100.00	100.00	ncbi	NG_048425.1	VanA-type vancomycin resistance histidine kinase VanS	VANCOMYCIN
input/ERR2779245_bin_1.fasta	S40_LN:i:22488_dp:f:1.256838668759569	9624	10592	+	vanH-A	1-969/969	===============	0/0	100.00	100.00	ncbi	NG_048372.1	D-lactate dehydrogenase VanH-A	VANCOMYCIN
input/ERR2779245_bin_1.fasta	S40_LN:i:22488_dp:f:1.256838668759569	10585	11616	+	vanA	1-1032/1032	===============	0/0	100.00	100.00	ncbi	NG_048323.1	D-alanine--(R)-lactate ligase VanA	VANCOMYCIN
input/ERR2779245_bin_1.fasta	S40_LN:i:22488_dp:f:1.256838668759569	11622	12230	+	vanX-A	1-609/609	===============	0/0	100.00	100.00	ncbi	NG_048477.1	D-Ala-D-Ala dipeptidase VanX-A	VANCOMYCIN
input/ERR2779245_bin_1.fasta	S40_LN:i:22488_dp:f:1.256838668759569	12658	13569	+	vanY-A	1-912/912	===============	0/0	100.00	100.00	ncbi	NG_048516.1	D-Ala-D-Ala carboxypeptidase VanY-A	VANCOMYCIN
input/ERR2779245_bin_1.fasta	S40_LN:i:22488_dp:f:1.256838668759569	13722	14207	+	vanZ-A	1-486/486	===============	0/0	100.00	100.00	ncbi	NG_048534.1	glycopeptide resistance protein VanZ-A	VANCOMYCIN
