#FILE	SEQUENCE	START	END	STRAND	GENE	COVERAGE	COVERAGE_MAP	GAPS	%COVERAGE	%IDENTITY	DATABASE	ACCESSION	PRODUCT	RESISTANCE
input/ERR2779426_bin_1.fasta	S27_LN:i:28916_dp:f:1.480258684267421	6455	7150	+	vanR-A	1-696/696	===============	0/0	100.00	100.00	ncbi	NG_048399.1	VanA-type vancomycin resistance DNA-binding response regulator VanR	VANCOMYCIN
input/ERR2779426_bin_1.fasta	S27_LN:i:28916_dp:f:1.480258684267421	7128	8282	+	vanS-A	1-1155/1155	===============	0/0	100.00	100.00	ncbi	NG_048425.1	VanA-type vancomycin resistance histidine kinase VanS	VANCOMYCIN
input/ERR2779426_bin_1.fasta	S27_LN:i:28916_dp:f:1.480258684267421	8497	9465	+	vanH-A	1-969/969	===============	0/0	100.00	100.00	ncbi	NG_048372.1	D-lactate dehydrogenase VanH-A	VANCOMYCIN
input/ERR2779426_bin_1.fasta	S27_LN:i:28916_dp:f:1.480258684267421	9458	10489	+	vanA	1-1032/1032	===============	0/0	100.00	100.00	ncbi	NG_048323.1	D-alanine--(R)-lactate ligase VanA	VANCOMYCIN
input/ERR2779426_bin_1.fasta	S27_LN:i:28916_dp:f:1.480258684267421	10495	11103	+	vanX-A	1-609/609	===============	0/0	100.00	100.00	ncbi	NG_048477.1	D-Ala-D-Ala dipeptidase VanX-A	VANCOMYCIN
input/ERR2779426_bin_1.fasta	S27_LN:i:28916_dp:f:1.480258684267421	11531	12442	+	vanY-A	1-912/912	===============	0/0	100.00	100.00	ncbi	NG_048516.1	D-Ala-D-Ala carboxypeptidase VanY-A	VANCOMYCIN
input/ERR2779426_bin_1.fasta	S27_LN:i:28916_dp:f:1.480258684267421	12595	13080	+	vanZ-A	1-486/486	===============	0/0	100.00	100.00	ncbi	NG_048534.1	glycopeptide resistance protein VanZ-A	VANCOMYCIN
