#FILE	SEQUENCE	START	END	STRAND	GENE	COVERAGE	COVERAGE_MAP	GAPS	%COVERAGE	%IDENTITY	DATABASE	ACCESSION	PRODUCT	RESISTANCE
input/ERR2778676_bin_1.fasta	S41_LN:i:20588_dp:f:1.528895164637466	5682	6377	+	vanR-A	1-696/696	===============	0/0	100.00	100.00	ncbi	NG_048399.1	VanA-type vancomycin resistance DNA-binding response regulator VanR	VANCOMYCIN
input/ERR2778676_bin_1.fasta	S41_LN:i:20588_dp:f:1.528895164637466	6355	7509	+	vanS-A	1-1155/1155	===============	0/0	100.00	100.00	ncbi	NG_048425.1	VanA-type vancomycin resistance histidine kinase VanS	VANCOMYCIN
input/ERR2778676_bin_1.fasta	S41_LN:i:20588_dp:f:1.528895164637466	7724	8692	+	vanH-A	1-969/969	===============	0/0	100.00	100.00	ncbi	NG_048372.1	D-lactate dehydrogenase VanH-A	VANCOMYCIN
input/ERR2778676_bin_1.fasta	S41_LN:i:20588_dp:f:1.528895164637466	8685	9716	+	vanA	1-1032/1032	===============	0/0	100.00	100.00	ncbi	NG_048323.1	D-alanine--(R)-lactate ligase VanA	VANCOMYCIN
input/ERR2778676_bin_1.fasta	S41_LN:i:20588_dp:f:1.528895164637466	9722	10330	+	vanX-A	1-609/609	===============	0/0	100.00	100.00	ncbi	NG_048477.1	D-Ala-D-Ala dipeptidase VanX-A	VANCOMYCIN
input/ERR2778676_bin_1.fasta	S41_LN:i:20588_dp:f:1.528895164637466	10758	11669	+	vanY-A	1-912/912	===============	0/0	100.00	100.00	ncbi	NG_048516.1	D-Ala-D-Ala carboxypeptidase VanY-A	VANCOMYCIN
input/ERR2778676_bin_1.fasta	S41_LN:i:20588_dp:f:1.528895164637466	11822	12307	+	vanZ-A	1-486/486	===============	0/0	100.00	100.00	ncbi	NG_048534.1	glycopeptide resistance protein VanZ-A	VANCOMYCIN
