#FILE	SEQUENCE	START	END	STRAND	GENE	COVERAGE	COVERAGE_MAP	GAPS	%COVERAGE	%IDENTITY	DATABASE	ACCESSION	PRODUCT	RESISTANCE
input/ERR2778647_bin_2.fasta	S42_LN:i:22488_dp:f:1.0881569437287677	9624	12230	+	VanHAX_2	1-2607/2607	===============	0/0	100.00	100.00	resfinder	M97297	VanHAX	Vancomycin;Teicoplanin
input/ERR2778647_bin_2.fasta	S42_LN:i:22488_dp:f:1.0881569437287677	14458	15021	-	str_3	1-564/564	===============	0/0	100.00	100.00	resfinder	AM932524	str	Streptomycin
input/ERR2778647_bin_2.fasta	S61_LN:i:10105_dp:f:1.1933540548169568	7732	8376	-	vat(E)_5	1-645/645	===============	0/0	100.00	100.00	resfinder	AJ488494	vat(E)	Dalfopristin;Pristinamycin_IIA;Virginiamycin_M
input/ERR2778647_bin_2.fasta	S61_LN:i:10105_dp:f:1.1933540548169568	9079	9825	-	erm(B)_6	1-747/747	===============	0/0	100.00	100.00	resfinder	AF242872	erm(B)	Erythromycin;Lincomycin;Clindamycin;Quinupristin;Pristinamycin_IA;Virginiamycin_S
