#FILE	SEQUENCE	START	END	STRAND	GENE	COVERAGE	COVERAGE_MAP	GAPS	%COVERAGE	%IDENTITY	DATABASE	ACCESSION	PRODUCT	RESISTANCE
input/ERR2779293_bin_3.fasta	S44_LN:i:15515_dp:f:1.5399906967763453	495	1058	+	str_3	1-564/564	===============	0/0	100.00	100.00	resfinder	AM932524	str	Streptomycin
input/ERR2779293_bin_3.fasta	S44_LN:i:15515_dp:f:1.5399906967763453	3286	5892	-	VanHAX_2	1-2607/2607	===============	0/0	100.00	100.00	resfinder	M97297	VanHAX	Vancomycin;Teicoplanin
