#FILE	SEQUENCE	START	END	STRAND	GENE	COVERAGE	COVERAGE_MAP	GAPS	%COVERAGE	%IDENTITY	DATABASE	ACCESSION	PRODUCT	RESISTANCE
input/ERR2779225_bin_2.fasta	S40_LN:i:22488_dp:f:1.3871567117424293	7468	8031	+	str_3	1-564/564	===============	0/0	100.00	100.00	resfinder	AM932524	str	Streptomycin
input/ERR2779225_bin_2.fasta	S40_LN:i:22488_dp:f:1.3871567117424293	10259	12865	-	VanHAX_2	1-2607/2607	===============	0/0	100.00	100.00	resfinder	M97297	VanHAX	Vancomycin;Teicoplanin
