#FILE	SEQUENCE	START	END	STRAND	GENE	COVERAGE	COVERAGE_MAP	GAPS	%COVERAGE	%IDENTITY	DATABASE	ACCESSION	PRODUCT	RESISTANCE
input/ERR2779656_bin_1.fasta	S48_LN:i:18063_dp:f:1.3019034876037683	12002	13921	+	tet(M)	1-1920/1920	===============	0/0	100.00	99.95	ncbi	NG_048236.1	tetracycline resistance ribosomal protection protein Tet(M)	TETRACYCLINE
input/ERR2779656_bin_1.fasta	S67_LN:i:7971_dp:f:1.4202344926492565	4903	5697	-	aph(3')-IIIa	1-795/795	===============	0/0	100.00	100.00	ncbi	NG_047418.1	aminoglycoside O-phosphotransferase APH(3')-IIIa	AMIKACIN;KANAMYCIN
input/ERR2779656_bin_1.fasta	S67_LN:i:7971_dp:f:1.4202344926492565	5790	6332	-	sat4	1-543/543	===============	0/0	100.00	100.00	ncbi	NG_048072.1	streptothricin N-acetyltransferase Sat4	STREPTOTHRICIN
input/ERR2779656_bin_1.fasta	S67_LN:i:7971_dp:f:1.4202344926492565	6329	7237	-	ant(6)-Ia	1-909/909	===============	0/0	100.00	100.00	ncbi	NG_047393.1	aminoglycoside nucleotidyltransferase ANT(6)-Ia	STREPTOMYCIN
input/ERR2779656_bin_1.fasta	S86_LN:i:4625_dp:f:1.1094446539149596	2390	3766	-	tet(L)	1-1377/1377	===============	0/0	100.00	99.93	ncbi	NG_048203.1	tetracycline efflux MFS transporter Tet(L)	TETRACYCLINE
input/ERR2779656_bin_1.fasta	S94_LN:i:3280_dp:f:1.12323527613726	2263	3000	-	erm(B)	1-738/738	===============	0/0	100.00	99.73	ncbi	NG_047804.1	23S rRNA (adenine(2058)-N(6))-methyltransferase Erm(B)	MACROLIDE
input/ERR2779656_bin_1.fasta	S97_LN:i:2743_dp:f:1.0818375358827004	1591	2235	+	vat(E)	1-645/645	===============	0/0	100.00	100.00	ncbi	NG_048542.2	streptogramin A O-acetyltransferase Vat(E)	STREPTOGRAMIN
