#FILE	SEQUENCE	START	END	STRAND	GENE	COVERAGE	COVERAGE_MAP	GAPS	%COVERAGE	%IDENTITY	DATABASE	ACCESSION	PRODUCT	RESISTANCE
input/ERR2779732_bin_1.fasta	S21_LN:i:36426_dp:f:2.5656873602523382	1246	1983	+	erm(B)	1-738/738	===============	0/0	100.00	100.00	ncbi	NG_047794.1	23S rRNA (adenine(2058)-N(6))-methyltransferase Erm(B)	MACROLIDE
input/ERR2779732_bin_1.fasta	S21_LN:i:36426_dp:f:2.5656873602523382	30537	32456	+	tet(M)	1-1920/1920	===============	0/0	100.00	99.95	ncbi	NG_048233.1	tetracycline resistance ribosomal protection protein Tet(M)	TETRACYCLINE
input/ERR2779732_bin_1.fasta	S21_LN:i:36426_dp:f:2.5656873602523382	32650	34026	+	tet(L)	1-1377/1377	===============	0/0	100.00	100.00	ncbi	NG_048203.1	tetracycline efflux MFS transporter Tet(L)	TETRACYCLINE
