#FILE	SEQUENCE	START	END	STRAND	GENE	COVERAGE	COVERAGE_MAP	GAPS	%COVERAGE	%IDENTITY	DATABASE	ACCESSION	PRODUCT	RESISTANCE
input/ERR2778574_bin_1.fasta	S52_LN:i:11938_dp:f:2.466464736552858	601	1363	-	erm(B)_18	1-762/762	========/======	1/1	100.00	98.95	resfinder	X66468	erm(B)	Erythromycin;Lincomycin;Clindamycin;Quinupristin;Pristinamycin_IA;Virginiamycin_S
input/ERR2778574_bin_1.fasta	S52_LN:i:11938_dp:f:2.466464736552858	9159	11765	+	VanHAX_2	1-2607/2607	===============	0/0	100.00	100.00	resfinder	M97297	VanHAX	Vancomycin;Teicoplanin
input/ERR2778574_bin_1.fasta	S59_LN:i:10286_dp:f:1.5252292945504284	573	2057	+	lsa(E)_1	1-1485/1485	===============	0/0	100.00	100.00	resfinder	JX560992	lsa(E)	Lincomycin;Clindamycin;Dalfopristin;Pristinamycin_IIA;Virginiamycin_M;Tiamulin
input/ERR2778574_bin_1.fasta	S59_LN:i:10286_dp:f:1.5252292945504284	2111	2914	+	lnu(B)_2	1-804/804	===============	0/0	100.00	100.00	resfinder	JQ861959	lnu(B)	Lincomycin;Clindamycin
input/ERR2778574_bin_1.fasta	S59_LN:i:10286_dp:f:1.5252292945504284	6422	7285	+	ant(6)-Ia_2	1-864/864	===============	0/0	100.00	100.00	resfinder	KF421157	ant(6)-Ia	Streptomycin
