#FILE	SEQUENCE	START	END	STRAND	GENE	COVERAGE	COVERAGE_MAP	GAPS	%COVERAGE	%IDENTITY	DATABASE	ACCESSION	PRODUCT	RESISTANCE
input/ERR2779801_bin_1.fasta	S23_LN:i:36426_dp:f:3.1061936961552106	2401	3777	-	tet(L)_2	1-1377/1377	===============	0/0	100.00	100.00	resfinder	M29725	tet(L)	Doxycycline;Tetracycline
input/ERR2779801_bin_1.fasta	S23_LN:i:36426_dp:f:3.1061936961552106	3971	5890	-	tet(M)_10	1-1920/1920	===============	0/0	100.00	96.46	resfinder	EU182585	tet(M)	Doxycycline;Tetracycline;Minocycline
input/ERR2779801_bin_1.fasta	S23_LN:i:36426_dp:f:3.1061936961552106	34444	35206	-	erm(B)_18	1-762/762	========/======	1/1	100.00	99.21	resfinder	X66468	erm(B)	Erythromycin;Lincomycin;Clindamycin;Quinupristin;Pristinamycin_IA;Virginiamycin_S
