#FILE	SEQUENCE	START	END	STRAND	GENE	COVERAGE	COVERAGE_MAP	GAPS	%COVERAGE	%IDENTITY	DATABASE	ACCESSION	PRODUCT	RESISTANCE
input/ERR2779593_bin_1.fasta	S60_LN:i:11759_dp:f:1.2843435316820897	3589	5508	+	tet(M)	1-1920/1920	===============	0/0	100.00	99.95	ncbi	NG_048236.1	tetracycline resistance ribosomal protection protein Tet(M)	TETRACYCLINE
input/ERR2779593_bin_1.fasta	S64_LN:i:9416_dp:f:1.0235099186048287	271	1016	-	erm(B)	1-747/747	========/======	1/1	99.87	99.47	ncbi	NG_047801.1	23S rRNA (adenine(2058)-N(6))-methyltransferase Erm(B)	MACROLIDE
input/ERR2779593_bin_1.fasta	S64_LN:i:9416_dp:f:1.0235099186048287	2799	4175	+	tet(L)	1-1377/1377	===============	0/0	100.00	100.00	ncbi	NG_048206.1	tetracycline efflux MFS transporter Tet(L)	TETRACYCLINE
input/ERR2779593_bin_1.fasta	S74_LN:i:7196_dp:f:1.182238138142724	1918	2721	-	lnu(B)	1-804/804	===============	0/0	100.00	100.00	ncbi	NG_047923.1	lincosamide nucleotidyltransferase Lnu(B)	LINCOSAMIDE
input/ERR2779593_bin_1.fasta	S74_LN:i:7196_dp:f:1.182238138142724	2775	4259	-	lsa(E)	1-1485/1485	===============	0/0	100.00	99.93	ncbi	NG_047935.1	ABC-F type ribosomal protection protein Lsa(E)	LINCOSAMIDE;STREPTOGRAMIN
input/ERR2779593_bin_1.fasta	S74_LN:i:7196_dp:f:1.182238138142724	6326	7135	-	spw	1-810/810	===============	0/0	100.00	100.00	ncbi	NG_048075.1	ANT(9) family aminoglycoside nucleotidyltransferase Spw	AMINOGLYCOSIDE
input/ERR2779593_bin_1.fasta	S78_LN:i:6315_dp:f:1.4924496811394565	2408	3052	-	vat(E)	1-645/645	===============	0/0	100.00	100.00	ncbi	NG_048542.2	streptogramin A O-acetyltransferase Vat(E)	STREPTOGRAMIN
input/ERR2779593_bin_1.fasta	S99_LN:i:2847_dp:f:1.3309103126002166	397	939	+	sat4	1-543/543	===============	0/0	100.00	100.00	ncbi	NG_048072.1	streptothricin N-acetyltransferase Sat4	STREPTOTHRICIN
input/ERR2779593_bin_1.fasta	S99_LN:i:2847_dp:f:1.3309103126002166	1032	1826	+	aph(3')-IIIa	1-795/795	===============	0/0	100.00	100.00	ncbi	NG_047418.1	aminoglycoside O-phosphotransferase APH(3')-IIIa	AMIKACIN;KANAMYCIN
