#FILE	SEQUENCE	START	END	STRAND	GENE	COVERAGE	COVERAGE_MAP	GAPS	%COVERAGE	%IDENTITY	DATABASE	ACCESSION	PRODUCT	RESISTANCE
input/ERR2779903_bin_1.fasta	S25_LN:i:3622_dp:f:1.2258623186574982	1636	3012	-	tet(L)_2	1-1377/1377	===============	0/0	100.00	100.00	resfinder	M29725	tet(L)	Doxycycline;Tetracycline
input/ERR2779903_bin_1.fasta	S26_LN:i:3337_dp:f:1.3925589640273124	230	874	-	vat(E)_5	1-645/645	===============	0/0	100.00	100.00	resfinder	AJ488494	vat(E)	Dalfopristin;Pristinamycin_IIA;Virginiamycin_M
input/ERR2779903_bin_1.fasta	S33_LN:i:1475_dp:f:1.0725353865227882	654	1416	+	erm(B)_18	1-762/762	========/======	1/1	100.00	99.08	resfinder	X66468	erm(B)	Erythromycin;Lincomycin;Clindamycin;Quinupristin;Pristinamycin_IA;Virginiamycin_S
