#FILE	SEQUENCE	START	END	STRAND	GENE	COVERAGE	COVERAGE_MAP	GAPS	%COVERAGE	%IDENTITY	DATABASE	ACCESSION	PRODUCT	RESISTANCE
input/ERR2779247_bin_1.fasta	S64_LN:i:15038_dp:f:0.9192621434539188	5750	6487	+	erm(B)	1-738/738	===============	0/0	100.00	100.00	ncbi	NG_047794.1	23S rRNA (adenine(2058)-N(6))-methyltransferase Erm(B)	MACROLIDE
input/ERR2779247_bin_1.fasta	S97_LN:i:6317_dp:f:1.1182906865714142	4743	6119	-	tet(L)	1-1377/1377	===============	0/0	100.00	100.00	ncbi	NG_048206.1	tetracycline efflux MFS transporter Tet(L)	TETRACYCLINE
